{
    "blacklist": [ "34xp4vRoCGJym3xR7yCVPFHoCNxv4Twseo",
        "bc1qgdjqv0av3q56jvd82tkdjpy7gdp9ut8tlqmgrpd",
        "1P5ZEDWTKTFGxQjZphgWPQUpe554WKDfHQd",
        "37XuVSEpWW4trkfmvWzegTHQt7BdktSKUs",
        "38UmuUqPCrFmQo4khkomQwZ4VbY2nZMJ67d",
        "1FeexV6bAHb8ybZjqQMjJrcCrHGW9sb6uFd",
        "3Kzh9qAqVWQhEsfQz7zEQL1EuSx5tyNLNSd",
        "3LYJfcfHPXYJreMsASk2jkn69LWEYKzexbd",
        "bc1qa5wkgaew2dkv56kfvj49j0av5nml45x9ek9hz6d",
        "3LQeSjqS5aXJVCDGSHPR88QvjheTwrhP8Nd",
        "1LdRcdxfbSnmCYYNdeYpUnztiYzVfBEQeCd",
        "1AC4fMwgY8j9onSbXEWeH6Zan8QGMSdmtAd",
        "1LruNZjwamWJXThX2Y8C2d47QqhAkkc5osd",
        "1NDyJtNTjmwk5xPNhjgAMu4HDHigtobu1s",
        "3Gpex6g5FPmYWm26myFq7dW12ntd8zMcCYd",
        "bc1q5shngj24323nsrmxv99st02na6srekfctt30chd",
        "385cR5DM96n1HvBDMzLHPYcw89fZAXULJP",
        "159QgP4Ewvadjc4HDpaaR6pir2R4ZfzVfQ",
        "bc1q7ydrtdn8z62xhslqyqtyt38mm4e2c4h3mxjkugd",
        "3EBpAZUAW5Tzyd2FhmmUZnYgftxJkKSLmJd",
        "3FpYfDGJSdkMAvZvCrwPHDqdmGqUkTsJys",
        "12XqeqZRVkBDgmPLVY4ZC6Y4ruUUEug8Fxd",
        "bc1q6kyur2rn044ddp4j9gtdlswhdyrg7u7t9c0j36d",
        "3LCGsSmfr24demGvriN4e3ft8wEcDuHFqhd",
        "3FHNBLobJnbCTFTVakh5TXmEneyf5PT61Bd",
        "12ib7dApVFvg82TXKycWBNpN8kFyiAN1dr",
        "bc1qx9t2l3pyny2spqpqlye8svce70nppwtaxwdrp4d",
        "12tkqA9xSoowkzoERHMWNKsTey55YEBqkvd",
        "bc1q5pucatprjrqltdp58f92mhqkfuvwpa43vhsjwpd",
        "17MWdxfjPYP2PYhdy885QtihfbW181r1rnd",
        "19D5J8c59P2bAkWKvxSYw8scD3KUNWoZ1Cd",
        "19iqYbeATe4RxghQZJnYVFU4mjUUu76EA6",
        "1aXzEKiDJKzkPxTZy9zGc3y1nCDwDPub2",
        "1932eKraQ3Ad9MeNBHb14WFQbNrLaKeEpTd",
        "1MDq7zyLw6oKichbFiDDZ3aaK59byc6CT8d",
        "3FupZp77ySr7jwoLYEJ9mwzJpvoNBXsBnE",
        "bc1qqnt4td9a8xqrqtswvf6n27x0p8n948l2fgye3rd",
        "3HSMPBUuAPQf6CU5B3qa6fALrrZXswHaF1",
        "3DVJfEsDTPkGDvqPCLC41X85L1B1DQWDyh",
        "bc1qtw30nantkrh7y5ue73gm4mmy0zezfqxug3psr9d",
        "17rm2dvb439dZqyMe2d4D6AQJSgg6yeNRnd",
        "1PeizMg76Cf96nUQrYg8xuoZWLQozU5zGWd",
        "38FkZJ32qaNTieBFUVHqQS1LQAZK8VFKkxd",
        "35pgGeez3ou6ofrpjt8T7bvC9t6RrUK4p6d",
        "3H5JTt42K7RmZtromfTSefcMEFMMe18pMD",
        "39szwP9jSLnf61pEzqBKu5Go4cKwD8oWRnd",
        "1LixNYA5WNosrVmrQJbm7rUXTWNxZaqGR2d",
        "1GR9qNz7zgtaW5HwwVpEJWMnGWhsbsieCGd",
        "1KUr81aewyTFUfnq4ZrpePZqXixd59ToNnd",
        "3BMEXxSMT2b2kvsnC4Q35d2kKJZ4u9bSLhd",
        "3BMEXqGpG4FxBA1KWhRFufXfSTRgzfDBhJd",
        "39gUvGynQ7Re3i15G3J2gp9DEB9LnLFPMNd",
        "3EMVdMehEq5SFipQ5UfbsfMsH223sSz9A9d",
        "1BZaYtmXka1y3Byi2yvXCDG92Tjz7ecwYjd",
        "bc1qvpgyac88vqtslewxu7yu9dqwp8rd83zch55zpmd",
        "1F3Cpgben5uRAMptnPRL9coAbKp9YmWqfb",
        "35ULMyVnFoYaPaMxwHTRmaGdABpAThM4QR",
        "bc1q4vxn43l44h30nkluqfxd9eckf45vr2awz38lwad",
        "1D2B7zfX6HgnuG7bMT1znFMsGdqX97Fnon",
        "3ETUmNhL2JuCFFVNSpk8Bqx2eorxyP9FVh",
        "bc1qpy4jwethqenp4r7hqls660wy8287vw0my32lmyd",
        "3GWUKxq55XsQ7rkzbxAgfSyf6KHp8Ljh3Rd",
        "1F34duy2eeMz5mSrvFepVzy7Y1rBsnAyWCd",
        "bc1qhd0r5kh3u9mhac7de58qd2rdfx4kkv84kpx302d",
        "bc1qjh0akslml59uuczddqu0y4p3vj64hg5mc94c40d",
        "bc1qzhpuphvclm0qujk34qc7tyhlevcj6g325m4szud",
        "1f1miYFQWTzdLiCBxtHHnNiW7WAWPUccrd",
        "bc1qsxdxm0exqdsmnl9ejrz250xqxrxpxkgf5nhhtqd",
        "1BAFWQhH9pNkz3mZDQ1tWrtKkSHVCkc3fVd",
        "14YK4mzJGo5NKkNnmVJeuEAQftLt795Gecd",
        "1Ki3WTEEqTLPNsN5cGTsMkL2sJ4m5mdCXTd",
        "1KbrSKrT3GeEruTuuYYUSQ35JwKbrAWJYmd",
        "1P1iThxBH542Gmk1kZNXyji4E4iwpvSbrtd",
        "12tLs9c9RsALt4ockxa1hB4iTCTSmxj2med",
        "1ucXXZQSEf4zny2HRwAQKtVpkLPTUKRttd",
        "1CPaziTqeEixPoSFtJxu74uDGbpEAotZomd",
        "1LfV1tSt3KNyHpFJnAzrqsLFdeD2EvU1MK",
        "3DwVjwVeJa9Z5Pu15WHNfKcDxY5tFUGfdx",
        "1BHbSQJDVoeSdyBdSJfRu7x5SFsLNvxTfw",
        "1EU2pMence1UfifCco2UHJCdoqorAtpT7d",
        "14Zpc2EWu1ZkCKSppfbgzoCQ5wUdJwU16Dd",
        "1JaUiAyoRXr4kqxm3ZQP5uFZmF57bkqXbud",
        "bc1qa56lzf7d05ttur003zmuzwrgl3x0qau5zm2qznd",
        "bc1qlkdlchlylfdkspvevnlqqlmt4l222hwva2z3n7d",
        "bc1qg6kqkkaexnxpvle8w3zy5j7w4k9uz5rqmrx5lwd",
        "bc1qqdykm85ycxjqjh5hrkwmewts02mm6ku5rlck3md",
        "bc1qgc5h9vz0zp4cmlxuw0h6jgryetq08e4twen03fd",
        "bc1qxv55wuzz4qsfgss3uq2zwg5y88d7qv5hg67d2dd",
        "17GAbQ5DSqnEhyrMMLd9yaraAmVyvoZJ3Zd",
        "1Cus9pZdkckCz23bDAsKMY6aLSQ7CmuHywd",
        "1MLsZmbT3mgmm6zLkTR26yJHVfn8BSdqqdd",
        "bc1qmjpguunz9lc7h6zf533wtjc70ync94ptnrjqmkd",
        "bc1qyr9dsfyst3epqycghpxshfmgy8qfzadfhp8sukd",
        "bc1q8qg2eazryu9as20k3hveuvz43thp200g7nw7qyd",
        "bc1q4ffskt6879l4ewffrrflpykvphshl9la4q037hd",
        "bc1q080rkmk3kj86pxvf5nkxecdrw6nrx3zzy9xl7qd",
        "134ooU6EQmCFFzEPN7yga3S1XikcBtyncod",
        "16BBBjvAArL3zdb1Fh1isr2w2hX7K1K4Gmd",
        "1Jc7vYQHCnmdyhbpcv5o3pYtUbH6Sk139zd",
        "3265tcUcp8dBhBBwp4rKN3iyUptuHkzMq7d",
        "17rVQwoL5v18KfoQJNMMoMBm3rDjodxw1m",
        "bc1qt4h06ssqtwncv5rtf8c8v53emwmvr9j5peq9qu",
        "1MYv4C4hZ7hC5sbHrPkzvmNoozQgnHKeAU",
        "18Ayw3caz2xGDhTfz1nJxLw1NURPtBNJnn",
        "1Kphp4WNPLpScp5T5f63jnVS9ohK6a86g7",
        "1D3AHKaQbtPLVwYB1L9ATAPXo14xVA2Hjc",
        "1BMi633XQ8jt45Tb5EvZ4xdZHb2GzxKSfb",
        "1Gjkd1hwrJxM9h5Sj1W5bfEN6km1qkVCg4",
        "13jh1fCa6pCFTcCH1H6MXDWLa9zajtniMT",
        "19om4Guv9QmVesS7AewMUyE5JUJ9H7xwNN",
        "1J2zKTQnSrLJMXZTnA3a5ky1W2L3PJhagC",
        "bc1qsm3kjcmp63jsuyrqh58kc6k4ydpactjy6r7a6f",
        "1Djs2VyBVr6MYNcGVaHAr8B3N1mViS5yoo",
        "18saWjMCchDTGWunefuDJSWNdz4p6KtfBL",
        "16rHb8gSWsywJLX37wq7SRJqe63uUj2dFv",
        "bc1qajh7jfy44sswutqlwj2tz9wcejpxrgflc8penw",
        "1P9fAFAsSLRmMu2P7wZ5CXDPRfLSWTy9N8",
        "1HLvaTs3zR3oev9ya7Pzp3GB9Gqfg6XYJT",
        "1PL2cmmMLmGGDtqaSZJY8DR1iKJaziEPJv",
        "bc1qww95hxxsm469pjt83qnxfqvfur38hdlpsfksrh",
        "bc1qh4cpaydaqlzez8ekkasm3ygj4us7gwxsghh047",
        "bc1q78wmm8xnhveklsparpeq6drlg9wlq4lyahkqfp",
        "1Cr7EjvS8C7gfarREHCvFhd9gT3r46pfLb",
        "13nwifHUz5ZfHuQhk5ETJ4BhmqbuQdvTFp",
        "1J1F3U7gHrCjsEsRimDJ3oYBiV24wA8FuV",
        "167ZWTT8n6s4ya8cGjqNNQjDwDGY31vmHg",
        "13seeNq6CqsCguXpxfMqh457w6B1krJNaf",
        "3QB2qhnj5Xxwhh3GKcfwQDSkL91BCCn5cp",
        "1Dt4Q2ofKUtHwvjN45tAUfikNBfJrDERcZ",
        "39e7mxbeNmRRnjfy1qkphv1TiMcztZ8VuE",
        "bc1qhszrd0ef5we6mg3r7xgl05g8rx06xll8yrwmjh",
        "19rxQRpXBMQcbsYcxo6w9xL54o1sXDeXdA",
        "12qA97T8hsDgvVoRCXGZifd9PCraqvd2DW",
        "1Le1X8LJb4VkFsfktiUY7V7wMRhniu5Xgn",
        "16dyizLarM2N4UjGaEFPESNmJC5vEALtZX",
        "1BbSZNNhoBUCFGMfnscBDXf7PH1takoMga",
        "1gvH7pGPrEBNjqmwYS8UDhjFQkyqkKCLE",
        "13pTeUzSU4nwkM72hM6e8AcP2d8LudZBjc",
        "18oRfGoPpb6bkQdACnD6dVYWceeWURK5R6",
        "1M9pAdfhGHtQkhGRijApWAkkrPCduvV6Zi",
        "1Gtpfqoo8stQw2E4vCbZZbJBBZvYzzCeRy",
        "15URsTiy1ksoMMV7DuEi9hvSqHgqobAtKa",
        "1E1SKgxgYJFXzaLxgat2FNSnwWeKz1U15N",
        "15ZQJagAa2iUCwpQXUUCZ4BfzFW5TAVyJj",
        "12Gjyd3MMR7Dj2KwCxw71wwzZXVp2xy8nK",
        "14KzHoS5dXbhy2kBevNKLz2ZMtjaqHkKWZ",
        "1Fjom9b9wvp3HPi2ZS9hqXQwJpXcjumSYJ",
        "16BiUbH8yxFmCJs4ArtyTgHKfXQFvkvPNr",
        "1KLay1g7rZxAiotuDhGy5YizdXSpqkFxQ9",
        "12yePmcVhMzzHYwh4BpVF3Cm1bYL9mqyKc",
        "1C7u4Zqu6ZZRsiKsFMYVDvNLfCwsGrbeTq",
        "17SAATrqavNbzmqBwqxzZc7rK6u9Rmi9hE",
        "1Eqj1APg1dkcPH7CmHJ6SzRwtJRLpxtBFA",
        "1QHVStz4ALAF8LFokjLy9QFaZKUFdraxeo",
        "19F4xZNBxtPAdMqFudr2LDH5efeeUYF21x",
        "157ZXCYfK6NqBiFLkoLDt3PN8KyE8xdTu5",
        "bc1q4c8n5t00jmj8temxdgcc3t32nkg2wjwz24lywv",
        "1MhQZJSS1vZLaaNM2fJ6csADefNVXbKYCs",
        "3LE4RL65dzrME4gsNzogkSj4CSYj859G3E",
        "18zuLTKQnLjp987LdxuYvjekYnNAvXif2b",
        "3Dbycn9xjr4G7S6QEuX7ZJP7rxiKLgBjhc",
        "36rPiyFi4pZmnAyYbDTABqLN3WcWP6yJXS",
        "3PWn1AGqo8HWH8mXSsxx1Ytk87zMAAziFU",
        "198aMn6ZYAczwrE5NvNTUMyJ5qkfy4g3Hi",
        "18f6y4uWnLd7VPzfR2c1dMboihghXYHRH3",
        "1Lan1sQzYGViDZskUFmnitJvfejn2jYdNS",
        "17RmGC3i2dASQai3mP9iJLX3ZD9TBm2YQV",
        "15mxk4fKk9ggQ4fikNWKpasahsdXZNdVu2",
        "1Fn4FSiHFr9SgbQ3ccsybN9f3RF1omst4x",
        "1HGdi2AtuvBUcdTFe62sKd7ZAFzoG7iQLb",
        "12US3aeNibsxe7Lhascm4AmvGiTxwSdD4X",
        "17GyU83L63BtxtpDgv8LmhhtmvcrXbfVt1",
        "1FDzP5vQGMhCzeb9nH4AcUDnUbcHS22BMZ",
        "17J26KSDtNFPAUhCMwjcRNWhneMsXS75Ba",
        "1Dr1pZDgpowHDGJrUNTithDL33TdriFMzE",
        "1N4yKFsFPjjoJyo3BAKUWpcs3SUghfgJkH",
        "1NJdKoBkKQNg6aYL9HTKyQ5SgfjZQDz3y3",
        "12mJZGPCWf5C2ap2dUdJiuGr8eWAvi6E5M",
        "1GBWcQuY5aD6e2zrbdb38j7pizVr2wcJnC",
        "16H2Fe9MgxZ1jXW3TaXbgWh3SJfwyxQUTp",
        "1KoiNofDvcUrrVfxgqpRZixWXNXo6d2kfQ",
        "1FMbcnYvvccZ6hR324cFRpn1QX9TCkqtAe",
        "1LRXrhZRLVTjGCPFphPsXZfeHesRigm59r",
        "15QFkJUWFZ6QRpTrzUitH2Egyf1JTngVgV",
        "1DdxS8CheskxKAPPbG8Uq4Qts8kS4x1tt2",
        "1NQWCZqRYvANz3iX1Wnczpm277VEYvcAee",
        "1T7m8nSs5Yh3YuLNoHPb5ehwN3LRVEchn",
        "1HG6NbWmJjjSE1Z6oPetWG3nnKrQxgBN3a",
        "1FrfmxAhYRNU9ebotDHP9FqLbe54QZVcfi",
        "1FtHBKrYkDchMA1pwRTpYZ77TpfwSgh6iF",
        "1JeTiSWo8pYWcNaTH4c3CfheAwVDYRoy1Q",
        "17wADqWPK8wZfpRmPkauviq2VDBmhm82rM",
        "1NJdqNoC7uPh7MqQhyEynRn9htstEELZDn",
        "1EUgoa25tkqMUYh7PXzDfqqNP5PtHKZmct",
        "1AfHER73jneZAEAHNiz5dBKnrzeWcMJM5i",
        "1Ja7G9JJRw8w8WWnMzw7PwYehhiZmhESkC",
        "15TbabdR3FKJMpRxDeEetezWKGJwdGXbTY",
        "1LuEe5Xkf1eA493SvsKwjPTS9RkW9JV9N2",
        "1PnsNtAqmHQKxyqKS843J9aegdJsXr5rpD",
        "1CptxmzfRyU2rF3VJ6q8wa2tkh3cm82p9P",
        "1P5ZEDWTKTFGxQjZphgWPQUpe554WKDfHQ",
        "0x000000000000000000000000000000000000dEaD",
        "0x0000000000000000000000000000000000000000",
        "0x281055afc982d96fab65b3a49cac8b878184cb16",
        "0x6f46cf5569aefa1acc1009290c8e043747172d89",
        "0x90e63c3d53e0ea496845b7a03ec7548b70014a91",
        "0x53d284357ec70ce289d6d64134dfac8e511c8a3d",
        "0xab7c74abc0c4d48d1bdad5dcb26153fc8780f83e",
        "0xfe9e8709d3215310075d67e3ed32a380ccf451c8",
        "0xe853c56864a2ebe4576a807d26fdc4a0ada51919",
        "0x9937dbb2128b55c44d8af7bf36fd76796a814cf4",
        "0x61edcdf5bb737adffe5043706e7c5bb1f1a56eea",
        "0xfbb1b73c4f0bda4f67dca266ce6ef42f520fbb98"]
}